<svg width="42" height="41" viewBox="0 0 42 41" fill="none" xmlns="http://www.w3.org/2000/svg">
<path d="M6.14056 6.60882C-2.04685 14.471 -2.04685 27.2152 6.14056 35.0774C14.328 42.9396 27.6018 42.9396 35.7866 35.0774C43.9741 27.2152 43.9741 14.4686 35.7866 6.60639C27.5992 -1.25583 14.3254 -1.2534 6.14056 6.60882ZM31.3392 30.8066C25.6164 36.3022 16.3083 36.2997 10.5854 30.8066C4.86516 25.3111 4.86262 16.3727 10.5854 10.8772C16.3083 5.38408 25.6164 5.38408 31.3392 10.8772C37.062 16.3727 37.062 25.3136 31.3392 30.8066Z" fill="white"/>
<path d="M28.1485 17.3474C28.1485 19.0688 26.6957 20.4664 24.9005 20.4664C23.1078 20.4664 21.6524 19.0713 21.6524 17.3474C21.6524 15.6259 23.1078 14.2283 24.9005 14.2283C26.6957 14.2283 28.1485 15.6259 28.1485 17.3474Z" fill="white"/>
<path d="M28.1485 24.33C28.1485 26.0515 26.6957 27.4491 24.9005 27.4491C23.1078 27.4491 21.6524 26.0539 21.6524 24.33C21.6524 22.6086 23.1078 21.2109 24.9005 21.2109C26.6957 21.2134 28.1485 22.6086 28.1485 24.33Z" fill="white"/>
<path d="M20.27 17.3474C20.27 19.0688 18.8171 20.4664 17.0219 20.4664C15.2292 20.4664 13.7738 19.0713 13.7738 17.3474C13.7738 15.6259 15.2267 14.2283 17.0219 14.2283C18.8146 14.2283 20.27 15.6259 20.27 17.3474Z" fill="white"/>
<path d="M17.0219 27.4491C18.8158 27.4491 20.27 26.0526 20.27 24.33C20.27 22.6074 18.8158 21.2109 17.0219 21.2109C15.228 21.2109 13.7738 22.6074 13.7738 24.33C13.7738 26.0526 15.228 27.4491 17.0219 27.4491Z" fill="white"/>
</svg>
